[
{
    "model": "store.categorie",
    "pk": 1,
    "fields": {
        "name": "bijoux",
        "image": "images_categorie/Beige_Organic_Organic_Jewelry_Your_Story_1600500px_1.png"
    }
},
{
    "model": "store.categorie",
    "pk": 2,
    "fields": {
        "name": "vetement",
        "image": "images_categorie/Kids_Clothes_Sale_1600500px_1.png"
    }
},
{
    "model": "store.categorie",
    "pk": 3,
    "fields": {
        "name": "cosmetique",
        "image": "images_categorie/Beige_Elegant_Moderne_et_Simple_Marque_Beauté_Instagram_Post_1600500px.png"
    }
},
{
    "model": "store.categorie",
    "pk": 4,
    "fields": {
        "name": "enfant",
        "image": "images_categorie/black_modern_clothes_sale_instagram_post_1600500px_1000300px_600200px_1_rIRAA3p.png"
    }
},
{
    "model": "store.couleur",
    "pk": 2,
    "fields": {
        "name": "Rouge"
    }
},
{
    "model": "store.taille",
    "pk": 1,
    "fields": {
        "name": "XS"
    }
},
{
    "model": "store.taille",
    "pk": 2,
    "fields": {
        "name": "30cm"
    }
},
{
    "model": "store.taille",
    "pk": 3,
    "fields": {
        "name": "XL"
    }
},
{
    "model": "store.taille",
    "pk": 4,
    "fields": {
        "name": "30cl"
    }
},
{
    "model": "store.taille",
    "pk": 5,
    "fields": {
        "name": "L"
    }
},
{
    "model": "store.object",
    "pk": 1,
    "fields": {
        "name": "Boucle d'oreille",
        "type": 1,
        "image": ""
    }
},
{
    "model": "store.object",
    "pk": 2,
    "fields": {
        "name": "pull",
        "type": 2,
        "image": "images_objects/vetements.jpg"
    }
},
{
    "model": "store.object",
    "pk": 3,
    "fields": {
        "name": "Creme visage",
        "type": 3,
        "image": ""
    }
},
{
    "model": "store.object",
    "pk": 4,
    "fields": {
        "name": "Tenu",
        "type": 4,
        "image": ""
    }
},
{
    "model": "store.object",
    "pk": 5,
    "fields": {
        "name": "Chemisiers et blouses",
        "type": 2,
        "image": ""
    }
},
{
    "model": "store.object",
    "pk": 6,
    "fields": {
        "name": "Vestes",
        "type": 2,
        "image": ""
    }
},
{
    "model": "store.object",
    "pk": 7,
    "fields": {
        "name": "Chandails et pull-overs",
        "type": 2,
        "image": ""
    }
},
{
    "model": "store.object",
    "pk": 8,
    "fields": {
        "name": "Manteaux, parkas, anoraks",
        "type": 2,
        "image": ""
    }
},
{
    "model": "store.object",
    "pk": 9,
    "fields": {
        "name": "Chemisiers et blouses",
        "type": 2,
        "image": ""
    }
},
{
    "model": "store.object",
    "pk": 10,
    "fields": {
        "name": "Chemisiers et blouses",
        "type": 2,
        "image": ""
    }
},
{
    "model": "store.object",
    "pk": 11,
    "fields": {
        "name": "Vestes",
        "type": 2,
        "image": ""
    }
},
{
    "model": "store.object",
    "pk": 12,
    "fields": {
        "name": "Chandails et pull-overs",
        "type": 2,
        "image": ""
    }
},
{
    "model": "store.object",
    "pk": 13,
    "fields": {
        "name": "Manteaux,parkas,anoraks",
        "type": 2,
        "image": ""
    }
},
{
    "model": "store.object",
    "pk": 14,
    "fields": {
        "name": "Chemisiers-et-blouses",
        "type": 2,
        "image": ""
    }
},
{
    "model": "store.object",
    "pk": 15,
    "fields": {
        "name": "pantalon-long",
        "type": 2,
        "image": ""
    }
},
{
    "model": "store.object",
    "pk": 16,
    "fields": {
        "name": "Cache-cœur",
        "type": 2,
        "image": ""
    }
},
{
    "model": "store.object",
    "pk": 17,
    "fields": {
        "name": "Camisole",
        "type": 2,
        "image": ""
    }
},
{
    "model": "store.object",
    "pk": 18,
    "fields": {
        "name": "Capri",
        "type": 2,
        "image": ""
    }
},
{
    "model": "store.object",
    "pk": 19,
    "fields": {
        "name": "Caraco",
        "type": 2,
        "image": ""
    }
},
{
    "model": "store.object",
    "pk": 20,
    "fields": {
        "name": "Casaquin",
        "type": 2,
        "image": ""
    }
},
{
    "model": "store.object",
    "pk": 21,
    "fields": {
        "name": "Chainse",
        "type": 2,
        "image": ""
    }
},
{
    "model": "store.object",
    "pk": 22,
    "fields": {
        "name": "Châle",
        "type": 2,
        "image": ""
    }
},
{
    "model": "store.object",
    "pk": 23,
    "fields": {
        "name": "Chemisier",
        "type": 2,
        "image": ""
    }
},
{
    "model": "store.object",
    "pk": 24,
    "fields": {
        "name": "Combishort",
        "type": 2,
        "image": ""
    }
},
{
    "model": "store.object",
    "pk": 25,
    "fields": {
        "name": "Corsage",
        "type": 2,
        "image": ""
    }
},
{
    "model": "store.object",
    "pk": 26,
    "fields": {
        "name": "Corselet",
        "type": 2,
        "image": ""
    }
},
{
    "model": "store.article",
    "pk": 6,
    "fields": {
        "name": "polo vert",
        "description": "C'est un jolie polo vert",
        "couleur": 2,
        "prix": 1200.0,
        "image": "images_articles/polo_DwfCrWo.png",
        "object": 2,
        "created_at": "2023-01-30T22:00:26.561Z"
    }
},
{
    "model": "store.stock",
    "pk": 4,
    "fields": {
        "article": 6,
        "taille": 1,
        "quantite": 12,
        "code128": null,
        "barcode": "barcodes/None_NrxFjlu.png"
    }
},
{
    "model": "store.stock",
    "pk": 5,
    "fields": {
        "article": 6,
        "taille": 5,
        "quantite": 5,
        "code128": null,
        "barcode": "barcodes/None_BagHzVW.png"
    }
},
{
    "model": "store.stock",
    "pk": 6,
    "fields": {
        "article": 6,
        "taille": 3,
        "quantite": 1,
        "code128": null,
        "barcode": "barcodes/None_YvQUXHq.png"
    }
}
]
